<?xml version="1.0" encoding="UTF-8" standalone="no"?>
<!-- Created with Inkscape (http://www.inkscape.org/) -->

<svg
   width="32"
   height="32"
   viewBox="0 0 32 32"
   version="1.1"
   id="svg5"
   xmlns="http://www.w3.org/2000/svg"
   xmlns:svg="http://www.w3.org/2000/svg">
  <defs
     id="defs2" />
  <g
     id="layer1">
    <rect
       style="fill:#001b33;stroke:#ffffff;fill-opacity:1"
       id="rect3072"
       width="31"
       height="31"
       x="0.5"
       y="0.5"
       ry="2.6451848" />
    <path
       id="path2515-6"
       style="fill:none;stroke:#ffffff;stroke-width:1;stroke-linecap:butt;stroke-linejoin:miter;stroke-miterlimit:4;stroke-dasharray:none;stroke-opacity:1"
       d="M 29.181834,2.8181657 2.8181657,29.181834 m 2e-7,-26.3636681 26.3636681,26.3636681" />
  </g>
</svg>
